accuracy,F2,precision,recall,data
0.8811088882537867,0.917296222664016,0.8669673055242391,0.9738286196707472,train
0.7020785219399538,0.7990654205607478,0.7679640718562875,0.8327922077922078,test
0.6980526918671248,0.7941771935460981,0.7427419279836471,0.8532663316582914,kfold
