accuracy,F2,precision,recall,data
1.0,1.0,1.0,1.0,train
0.8568129330254042,0.9084194977843428,0.8333333333333334,0.9983766233766234,test
0.9331220110361741,0.9546964607926688,0.9234074069168461,0.9881803016922242,kfold
