accuracy,F2,precision,recall,confusion_matrix,data
1.0,1.0,1.0,1.0,"[[1130    0]
 [   0 2369]]",train
0.6593533487297921,0.7497879558948262,0.7850799289520426,0.7175324675324676,"[[129 121]
 [174 442]]",test
0.6527533210709177,0.7425645335621409,0.7451870684903372,0.7399603928600101,"[[ 531  599]
 [ 616 1753]]",kfold
