accuracy,F2,precision,recall,confusion_matrix,data
0.9376964847099171,0.9557809330628804,0.9199531433033971,0.9945124525116082,"[[ 925  205]
 [  13 2356]]",train
0.8787528868360277,0.907161803713528,0.996116504854369,0.8327922077922078,"[[248   2]
 [103 513]]",test
0.8258765583486614,0.8672597666694946,0.8689216462514621,0.8656042318980205,"[[ 839  291]
 [ 318 2051]]",kfold
